{
    "0": {
        "type": "list",
        "value": "Have you or anyone you are living with traveled abroad in the past months?",
        "options": [
            "Yes",
            "No"
        ]
    },
    "1": {
        "type": "check",
        "requirement": "Yes",
        "value": "Please select which country or countries below:",
        "options": [
            "Spain",
            "Italy",
            "France",
            "Germany",
            "United Kingdom",
            "Belgium",
            "Netherlands",
            "Switzerland",
            "Portugal",
            "Austria",
            "Ireland",
            "Sweden",
            "China",
            "Japan",
            "South Korea",
            "North Korea",
            "Malaysia",
            "Iran",
            "Tajikistan",
            "Turkmenistan",
            "United States",
            "Mexico",
            "Canada",
            "Argentina", 
            "Brazil", 
            "Bolivia", 
            "Chile", 
            "Colombia", 
            "Ecuador",
            "Guyana",
            "Paraguay",
            "Peru",
            "Suriname",
            "Uruguay",
            "Venezuela",
            "French Overseas Region of French Guiana. C",    
            "Others"
        ]
    },
    "2": {
        "type": "list",
        "value": "What of the following options applies to your accommodation condition?",
        "skip": "I don't want to say",
        "options": [
            "House/Apartment - Alone",
            "House/Apartment - Shared"]
    },
    "3": {
        "type": "list",
        "value": "Which part of Germany do you live in?",
        "skip": "I don't want to say",
        "options":[
            "Hamburg", 
            "Bremen",
            "Berlin",
            "Brandenburg",
            "Thuringia",
            "Saarland",
            "Hesse",
            "Saxony",
            "Bavaria",
            "Baden-Württemberg",
            "Lower Saxony",
            "Mecklenburg-Vorpommern",
            "North Rhine-Westphalia",
            "Rhineland-Palatinate",
            "Saxony-Anhalt",
            "Schleswig-Holstein"
        ]
    },
    "4": {
        "type": "list",
        "value": "What is your age group?",
        "options":[
            "18 - 30", 
            "31 - 50",
            "51 - 70",
            "Above 70"
        ]
    },
    "5": {
        "type": "list",
        "value": "Have you been in contact with someone who you know has been diagnosed positive with COVID-19?",
        "options":[
            "Yes", "No"
        ]
    },
    "6": {
        "type": "list",
        "value": "What is your blood type?",
        "skip": "I don't know",
        "options":[
            "O- (negative)", "O+ (positive)", "A- (negative)",
            "A+ (positive)", "B- (negative)", "B+ (positive)",
            "AB- (negative)", "AB+ (positive)"
        ]
    },
    "7": {
        "type": "list",
        "value": "Can you tell how many times per day?",
        "options":[
            "1 - 3 times", 
            "4 - 6 times",
            "7 - 10 times",
            "More than 10 times"
        ]
    },
    "8": {
        "type": "msg",
        "value": "Thank you for answering!"
    }
}